#265 - Brno

owner = A43
controller = A43
add_core = A43
culture = esmari
religion = regent_court

hre = yes

base_tax = 7
base_production = 7
base_manpower = 4

trade_goods = cloth

capital = ""

is_city = yes









add_permanent_province_modifier = {
	name = half_elven_minority_coexisting_small
	duration = -1
}
