#506 - Ciernhibin (black hill)

owner = F11
controller = F11
add_core = F11
culture = exodus_goblin
religion = goblinic_shamanism


base_tax = 2
base_production = 2
base_manpower = 2

trade_goods = fish

capital = ""










