lorent_colonial = {
	slot = 1
	generic = no
	ai = yes
	potential = {
		tag = A01
	}
	has_country_shield = yes
	
	lorent_recover_from_lilac_wars = {
		icon = mission_war_chest
		required_missions = { }
		position = 1
		
		trigger = {
				stability = 2
			}
			
		effect = {
			add_country_modifier = {
				name = "lorent_recovered_from_the_lilac_wars"
				duration = 9125
			}
		}
	}
	
	lorent_redglade_accord = {
		icon = mission_princess_writing
		required_missions = { lorent_recover_from_lilac_wars }
		position = 4
		
		trigger = {
		    if = {
			    limit = { ai = no }
			        A03 = {
				        is_march = yes
				        has_opinion = {
					        who = ROOT
					        value = 150
				        }
			        }
			}	
            else = {
                OR = {
                    A03 = {
				        is_march = yes
				        has_opinion = {
					        who = ROOT
					        value = 150
				        }
			        }
                    NOT = { exists = A03 }					
		        }
			}
		}	

		effect = {
			add_country_modifier = {
				name = "influential_diplomacy"
				duration = 3650 #10 years
			}
		}
	}
	
	lorent_endral_the_explorer = {
		icon = mission_establish_high_seas_navy
		required_missions = { lorent_redglade_accord }
		position = 5
		
		trigger = {
			has_idea_group = exploration_ideas
			has_idea = quest_for_the_new_world
		}
			
		effect = {
			define_explorer = {
				name = "Endral the Explorer"
				fire = 2
				shock = 2
				manuever = 6
				siege = 0
			}
		}
	}
	
	lorent_rediscovery_of_aelantir = {
		icon = mission_sea_battles
		required_missions = { lorent_endral_the_explorer }
		position = 6
		
		trigger = {
			custom_trigger_tooltip = {
				tooltip = aelantir_discovery.tooltip
				colonial_endralliande = {
					has_discovered = ROOT
				}
			}
		}

		effect = {
			add_country_modifier = {
				name = "lorent_rediscovery_of_aelantir"
				duration = 7300
			}
		}
	}
	
	lorent_colonize_endralliande = {
		icon = mission_dominate_home_trade_node
		required_missions = { lorent_rediscovery_of_aelantir }
		position = 7
		
		provinces_to_highlight = {
			colonial_region = colonial_endralliande
			NOT = { country_or_non_sovereign_subject_holds = ROOT }
			has_discovered = yes
		}
		
		trigger = {
			custom_trigger_tooltip = {
				tooltip = tooltip_colonize_endralliande
				num_of_provinces_owned_or_owned_by_non_sovereign_subjects_with = {
					value = 1
					colonial_region = colonial_endralliande
					is_city = yes
				}
			}
		}
		
		effect = {
			add_prestige = 15
			add_country_modifier = {
				name = "the_unknown_frontier"
				duration = 5475
			}
		}
	}
	
	lorent_establish_a_proper_colony = {
		icon = mission_colonial
		required_missions = { lorent_colonize_endralliande }
		position = 7
		
		provinces_to_highlight = {
			colonial_region = colonial_endralliande
			NOT = { country_or_non_sovereign_subject_holds = ROOT }
			has_discovered = yes
		}
		
		trigger = {
			custom_trigger_tooltip = {
				tooltip = tooltip_colony_in_endralliande
				num_of_provinces_owned_or_owned_by_non_sovereign_subjects_with = {
					value = 5
					colonial_region = colonial_endralliande
					is_city = yes
				}
			}
		}
		
		effect = {
			add_country_modifier = {
				name = "lorent_colonial_taxation"
				duration = 5475
			}
		}
	}
	
	lorent_the_centre_of_the_ruin = {
		icon = mission_invade_island
		required_missions = { lorent_establish_a_proper_colony }
		position = 8
		
		provinces_to_highlight = {
			colonial_region = colonial_isles
			NOT = { country_or_non_sovereign_subject_holds = ROOT }
			has_discovered = yes
		}
		
		trigger = {
			custom_trigger_tooltip = {
				tooltip = tooltip_colonize_isles
				num_of_provinces_owned_or_owned_by_non_sovereign_subjects_with = {
					value = 1
					colonial_region = colonial_isles
					is_city = yes
				}
			}
		}
		
		effect = {
			add_country_modifier = {
				name = "colonial_enthusiasm"
				duration = 7300
			}
		}
	}	
		
	lorent_headway_into_the_trollsbay = {
		icon = mission_galleys_in_port
		required_missions = { lorent_the_centre_of_the_ruin }
		position = 9
		
		provinces_to_highlight = {
			region = trollsbay_region
			NOT = { country_or_non_sovereign_subject_holds = ROOT }
			has_discovered = yes
		}
		
		trigger = {
			custom_trigger_tooltip = {
				tooltip = miss_est_derannport
				num_of_provinces_owned_or_owned_by_non_sovereign_subjects_with = {
					value = 1
					region = trollsbay_region
					is_city = yes
				}
			}
		}
        
        effect = {
			add_country_modifier = {
				name = "colonial_enthusiasm"
				duration = 7300
			}
		}
	}
	
	lorent_the_great_river = {
		icon = mission_occupy_alexandria
		required_missions = { lorent_headway_into_the_trollsbay }
		position = 10
		
		provinces_to_highlight = {
			colonial_region = colonial_ynn
			NOT = { country_or_non_sovereign_subject_holds = ROOT }
			has_discovered = yes
		}
		
		trigger = {
			custom_trigger_tooltip = {
				tooltip = tooltip_colonize_ynn
				num_of_provinces_owned_or_owned_by_non_sovereign_subjects_with = {
					value = 1
					colonial_region = colonial_ynn
					is_city = yes
				}
			}
		}
		
		effect = {
			add_country_modifier = {
				name = "lorent_colonial_taxation"
				duration = 5475
			}
		}
	}
	
	lorent_the_new_bloodwine = {
		icon = mission_burning_separation
		required_missions = { lorent_the_great_river }
		position = 11
		
		provinces_to_highlight = {
			colonial_region = colonial_ynn
			NOT = { country_or_non_sovereign_subject_holds = ROOT }
			has_discovered = yes
		}
		
		trigger = {
			custom_trigger_tooltip = {
				tooltip = tooltip_colony_in_the_ynn
				num_of_provinces_owned_or_owned_by_non_sovereign_subjects_with = {
					value = 5
					colonial_region = colonial_ynn
					is_city = yes
				}
			}
		}
		
		effect = {
			add_country_modifier = {
				name = "lorent_expanding_in_the_ynn"
				duration = 9125
			}
		}
	}
}

lorent_internal = {
	slot = 2
	generic = no
	ai = yes
	potential = {
		tag = A01
	}
	has_country_shield = yes
	
	lorent_reform_knights_of_the_rose = {
		icon = mission_swear_fealty_knight
		required_missions = { lorent_restore_the_army }
		position = 2
		
		trigger = {
			num_of_cavalry = 12
			
		}

		effect = {
			add_country_modifier = {
				name = "lorent_reformed_knights_of_the_rose"
				duration = 5475
			}
			add_army_tradition = 30
			deranne_area = {
				limit = {
					NOT = { is_core = ROOT }
					NOT = { owned_by = ROOT }
				}
				add_permanent_claim = ROOT
			}
			add_casus_belli = {
				target = A02
				type = cb_vassalize_mission
			}
		}
	}
	
	lorent_conquer_deranne = {
		icon = mission_steppe_warriors
		required_missions = { lorent_reform_knights_of_the_rose }
		position = 3
		
		provinces_to_highlight = {
			area = deranne_area
			NOT = {
				country_or_non_sovereign_subject_holds = ROOT
			}
		}
		
		trigger = {
			deranne_area = {
				type = all
				country_or_non_sovereign_subject_holds = ROOT
			}
		}
		effect = {
		    add_country_modifier = {
				name = "lorent_victory_over_the_seaflower"
				duration = 5475
			}
		}
	}
	
	lorent_renovating_lorentaine = {
		icon = mission_city_prosperity
		required_missions = { lorent_redglade_accord }
		position = 5
		
		provinces_to_highlight = {
			province_id = 67
		}
		
		trigger = {
			67 = {
				owned_by = ROOT
				has_building = marketplace
				has_building = temple
				has_building = workshop
			}
		}

		effect = {
			67 = {
				add_base_tax = 2
				add_base_production = 2
				add_base_manpower = 2
				add_province_modifier = {
					name = "growth_of_capital"
					duration = 7300 #20 years
				}
			}
		}
	}
	
	lorent_royal_mage_academy = {
		icon = mission_science
		required_missions = { lorent_renovating_lorentaine }
		position = 6
		
		provinces_to_highlight = {
			province_id = 67
		}
		
		trigger = {
			67 = {
				owned_by = ROOT
				has_building = university
			}
		}

		effect = {
			hidden_effect = {
				set_country_flag = lorent_mages_of_the_ruby_order
			}
			custom_tooltip = tooltip_mages_of_the_ruby_order
		}
	}
	
	lorent_the_ruby_crown = {
		icon = mission_empire
		required_missions = { lorent_royal_mage_academy }
		position = 8
		
		trigger = {
		    OR = {
			    AND = {				
			        adm = 6
			        dip = 6
			        mil = 6
				}	
	            AND = {
				    ruler_has_personality = mage_personality
					custom_trigger_tooltip = {
				        tooltip = tooltip_has_enchantment_3
                        has_ruler_flag = enchantment_3
					}
					custom_trigger_tooltip = {
					    tooltip = tooltip_has_transmutation_2
                        OR = {
							has_ruler_flag = transmutation_2	
							has_ruler_flag = transmutation_3
						}
                    }						
			    }
			}	
			dynasty = "Siloriel"
        }	

		effect = {
			country_event = {
				id = flavor_lorent.1
				days = 1
			}
		}
	}
	
	lorent_the_new_redglades = {
		icon = mission_forest_pilgrim
		required_missions = { lorent_establish_a_proper_colony	}
		position = 9
		
		provinces_to_highlight = {
			region = bloodgroves_region
			NOT = { country_or_non_sovereign_subject_holds = ROOT }
			has_discovered = yes
		}
		
		trigger = {
			custom_trigger_tooltip = {
				tooltip = tooltip_new_redglades
				num_of_provinces_owned_or_owned_by_non_sovereign_subjects_with = {
					value = 1
					region = bloodgroves_region
					is_city = yes
				}
			}
		}
        
        effect = {
			add_country_modifier = {
				name = "the_unknown_frontier"
				duration = 5475
			}
		    bloodgroves_region = {
				limit = {
					NOT = { is_core = ROOT }
					NOT = { is_permanent_claim = ROOT }
				}
				add_permanent_claim = ROOT
			}
		}
	}
	
	lorent_encourage_elven_migration = {
		icon = mission_fleet_arrival
		required_missions = { lorent_the_new_redglades }
		position = 10
		
		provinces_to_highlight = {
			region = bloodgroves_region
			NOT = { country_or_non_sovereign_subject_holds = ROOT }
			has_discovered = yes
		}
		
		trigger = {
			custom_trigger_tooltip = {
				tooltip = tooltip_new_redglades_2
				num_of_provinces_owned_or_owned_by_non_sovereign_subjects_with = {
					value = 10
					region = bloodgroves_region
					is_city = yes
				}
			}
			adm_power = 100
			dip_power = 100
		}
        
        effect = {
			add_adm_power = -100
			add_dip_power = -100
			add_country_modifier = {
				name = "lorent_encouraged_elven_migration"
				duration = 18250
			}
		}
	}
}


lorent_unification_of_lencenor = {
	slot = 3
	generic = no
	ai = yes
	potential = {
		tag = A01
	}
	has_country_shield = yes
	
	lorent_restore_the_army = {
		icon = mission_assemble_an_army
		required_missions = { }
		position = 1
		
		trigger = {
			army_size_percentage = 0.8
			manpower_percentage = 0.4
			num_of_generals = 1
		}
		
		effect = {
			lower_bloodwine_area = {
				limit = {
					NOT = { is_core = ROOT }
					NOT = { owned_by = ROOT }
				}
				add_permanent_claim = ROOT
			}
		}
	}
	
	lorent_curtail_the_wine_lords = {
		icon = mission_horse_siege
		required_missions = { lorent_restore_the_army }
		position = 2

		provinces_to_highlight = {
			OR = {
				province_id = 114
				province_id = 108
				province_id = 79
			}
			NOT = {
				country_or_non_sovereign_subject_holds = ROOT
			}
		}
		
		trigger = {
			114 = {
				country_or_non_sovereign_subject_holds = ROOT
			}
			108 = {
				country_or_non_sovereign_subject_holds = ROOT
			}
			79 = {
				country_or_non_sovereign_subject_holds = ROOT
			}
		}
		
		effect = {
			sorncost_vines_area = {
				limit = {
					NOT = { is_core = ROOT }
					NOT = { owned_by = ROOT }
				}
				add_permanent_claim = ROOT
			}
			sornhills_area = {
				limit = {
					NOT = { is_core = ROOT }
					NOT = { owned_by = ROOT }
				}
				add_permanent_claim = ROOT
			}
			add_country_modifier = {
				name = lorent_curtailed_the_wine_lords
				duration = 5475 #15 years
			}
		}
	}
	
	lorent_conquer_sorncost = {
		icon = mission_confrontation
		required_missions = { lorent_curtail_the_wine_lords }
		position = 3

		provinces_to_highlight = {
			OR = {
				area = sorncost_vines_area
				area = sornhills_area
			}
			NOT = {
				owned_by = ROOT
			}
		}
		
		trigger = {
			sorncost_vines_area = {
				type = all
				owned_by = ROOT
			}
			sornhills_area = {
				type = all
				owned_by = ROOT
			}
		}
		
		effect = {
			add_country_modifier = {
				name = lorent_integrated_ancient_lencori_blood
				duration = 9125 #25 years
			}
		}
	}
	
	lorent_lorenans_stead = {
		icon = mission_monarch_diplomacy
		required_missions = { 
		    lorent_conquer_deranne
			lorent_conquer_sorncost
            lorent_deal_with_wineport
			}
		position = 4

		provinces_to_highlight = {
			OR = {
			    province_id = 79
				province_id = 88
				province_id = 101
				province_id = 108
				province_id = 113
				province_id = 114
			}
			NOT = {
				country_or_non_sovereign_subject_holds = ROOT
			}
		}
		
		trigger = {
			79 = { country_or_non_sovereign_subject_holds = ROOT }
			88 = { country_or_non_sovereign_subject_holds = ROOT }
			101 = { country_or_non_sovereign_subject_holds = ROOT }
            108 = { country_or_non_sovereign_subject_holds = ROOT }
			113 = { country_or_non_sovereign_subject_holds = ROOT }
			114 = { country_or_non_sovereign_subject_holds = ROOT }
		}
		
		effect = {
			lencenor_region = {
				limit = {
					NOT = { is_core = ROOT }
					NOT = { owned_by = ROOT }
				}
				add_permanent_claim = ROOT
			}
			add_country_modifier = {
				name = lorent_following_lorenans_footsteps
				duration = 9125 #25 years
			}
		}
	}
	
	lorent_unification_of_lencenor = {
		icon = mission_crusade_for_varna
		required_missions = { lorent_lorenans_stead }
		position = 5
		
		provinces_to_highlight = {
			region = lencenor_region
			NOT = {
				country_or_non_sovereign_subject_holds = ROOT
			}
		}
		
		trigger = {
			lencenor_region = {
				type = all
				country_or_non_sovereign_subject_holds = ROOT
			}
		}
		
		effect = {
			add_dip_power = 100
			add_adm_power = 100
			add_mil_power = 100
			add_country_modifier = {
				name = "hegemonic_ambition"
				duration = 9125 #25 years
			}
			add_country_modifier = {
				name = lorent_lorenans_legacy
				duration = -1
			}
		}
	}
	
	lorent_the_arsenal_of_oldport = {
		icon = mission_early_game_buildings
		required_missions = { lorent_renovating_lorentaine }
		position = 6
		
	    provinces_to_highlight = 	{
			province_id = 38
		}
		
		trigger = {	
			38 = {
			    owned_by = ROOT
		        OR = {
			        has_building = shipyard
				    has_building = grand_shipyard
			    }
            }
            treasury = 200
            dip_power = 100
   		}
		
		effect = {
		    38 = {
			    add_base_tax = 1
				add_base_production = 2
				add_base_manpower = 3
				add_permanent_province_modifier = {
					name = lorent_oldport_arsenal
					duration = -1
				}
			}	
		    add_treasury = -200
			add_dip_power = -100
		}
	}
	
	lorent_the_summer_palace = {
		icon = mission_magnificent_castle
		required_missions = { lorent_the_arsenal_of_oldport }
		position = 7
		
		provinces_to_highlight = {
		    OR = {
			    province_id = 68
			    province_id = 72
		    }
		}	
        
		trigger = {
		    68 = {
			    owned_by = ROOT
			}	
			72 = {
                 owned_by = ROOT
			}
            treasury = 200
			mil_power = 100
		}

        effect = {
	        68 = {
			    add_base_tax = 2
				add_base_production = 1
				add_base_manpower = 3
				add_permanent_province_modifier = {
					name = lorent_summer_palace
					duration = -1
				}
			}	
		    add_treasury = -200
			add_mil_power = -100
		}
	}
	
	lorent_iron_mine = {
	    icon = mission_smith
		required_missions = { lorent_the_summer_palace }
		position = 8
		
		provinces_to_highlight = {
			province_id = 61
		}
		
		trigger = {
		    is_year = 1510
			61 = {
			    owned_by = ROOT
	            base_production = 10
			}	
        }
		
        effect = {
            61 = {
                change_trade_goods = iron
				add_province_modifier = {
					name = lorent_new_iron_mine
					duration = 7300
				}
			}
        }
    }

    lorent_elves_of_crovans_rest = {
	    icon = mission_alone_in_the_wood
		required_missions = { lorent_iron_mine }
		position = 9
		
		provinces_to_highlight = {
		    OR = {
			    province_id = 83
				province_id = 115
			}	
		}	
		
        trigger = {
			83 = {
			    owned_by = ROOT
	            base_manpower = 5
                development = 15				
			}
			115 = {
			    country_or_non_sovereign_subject_holds = ROOT
			}	
        }
		
		effect = {
            83 = {
                change_trade_goods = silk
				add_elven_minority_size_effect = yes
				add_base_tax = 1
				add_base_production = 1
				add_base_manpower = 1	
			}
			82 = {
				add_elven_minority_size_effect = yes
				add_base_tax = 1
				add_base_production = 1
				add_base_manpower = 1
			}
			106 = {
				add_elven_minority_size_effect = yes
				add_base_tax = 1
				add_base_production = 1
				add_base_manpower = 1	
			}
			90 = {
				add_elven_minority_size_effect = yes
				add_base_tax = 1
				add_base_production = 1
				add_base_manpower = 1	
			}
        }
	}	
		
	lorent_the_foundry_of_lorenith = {
		icon = mission_rb_build_furnaces
		required_missions = { lorent_elves_of_crovans_rest }
		position = 10
		
		provinces_to_highlight = {
			province_id = 61
		}
		
		trigger = {
			61 = {
			    owned_by = ROOT
			    trade_goods = coal
			    has_building = furnace
		    }
		}
		
		effect = {
			61 = { 
			    add_base_tax = 2
				add_base_production = 3
				add_base_manpower = 1
				add_permanent_province_modifier = {
					name = lorent_foundry_of_lorenith
					duration = -1
				}				
			}
			add_country_modifier = {
				name = lorent_the_foundry_of_lorenith
				duration = 18250
			}	
		}
	}	
}

lorent_wine = {
	slot = 4
	generic = no
	ai = yes
	potential = {
		tag = A01
	}
	has_country_shield = yes
	
	lorent_our_wexonard_emperor = {
		icon = mission_crowning
		required_missions = { }
		position = 1
		
		trigger = {
			A30 = {
				is_emperor = yes
			}

		}
		
		effect = {
			upper_winebay_area = {
				limit = {
					NOT = { is_core = ROOT }
					NOT = { owned_by = ROOT }
				}
				add_permanent_claim = ROOT
			}
			lower_winebay_area = {
				limit = {
					NOT = { is_core = ROOT }
					NOT = { owned_by = ROOT }
				}
				add_permanent_claim = ROOT
			}
			eastern_winebay_area = {
				limit = {
					NOT = { is_core = ROOT }
					NOT = { owned_by = ROOT }
				}
				add_permanent_claim = ROOT
			}
			add_country_modifier = {
				name = "lorent_emperor_disregards_lorentish_advances"	#Its called Merchant Navy in-game
				duration = 5475
			}
		}
	}
	
	lorent_deal_with_wineport = {
		icon = mission_burning_castle
		required_missions = { lorent_our_wexonard_emperor }
		position = 3
		
		provinces_to_highlight = {
			OR = {
			    province_id = 33
				province_id = 81
				province_id = 86
				province_id = 101
			}
			NOT = {
				country_or_non_sovereign_subject_holds = ROOT
			}
		}
		
		trigger = {
			33 = { country_or_non_sovereign_subject_holds = ROOT }
			81 = { country_or_non_sovereign_subject_holds = ROOT }
			86 = { country_or_non_sovereign_subject_holds = ROOT }
            101 = { country_or_non_sovereign_subject_holds = ROOT }
		}
		
		effect = {
			add_country_modifier = {
				name = "lorent_subjugated_wineport"
				duration = 9125 #25 years
			}
			add_mercantilism = 5
		}
	}
	
	lorent_secure_the_wine_trade = {
		icon = mission_guarded_market
		required_missions = { lorent_deal_with_wineport }
		position = 5
		
		provinces_to_highlight = {
			OR = {
				area = upper_winebay_area
				area = lower_winebay_area
				area = eastern_winebay_area
			}
			NOT = {
				country_or_non_sovereign_subject_holds = ROOT
			}
		}
		
		trigger = {
			home_trade_node = {
				trade_share = {
					country = ROOT
					share = 50
				}
			}
		}

		effect = {
			add_country_modifier = {
				name = "eng_channel_dominance"	#Its called Merchant Navy in-game
				duration = 5475
			}
			
			hidden_effect = {
				random_active_trade_node = {
					limit = {
						any_trade_node_member_province = {
							is_capital = yes
							owned_by = ROOT
						}
					}
					capital_scope = {
						save_event_target_as = reward_province
					}
					random_trade_node_member_province = {
						limit = {
							owned_by = ROOT
							development = CAPITAL
							is_capital = no
						}
						save_event_target_as = reward_province
					}
					random_trade_node_member_province = {
						limit = {
							owned_by = ROOT
							development = CAPITAL
							is_capital = no
							development = 20
						}
						save_event_target_as = reward_province
					}
					random_trade_node_member_province = {
						limit = {
							owned_by = ROOT
							development = CAPITAL
							is_capital = no
							development = 25
						}
						save_event_target_as = reward_province
					}
					random_trade_node_member_province = {
						limit = {
							owned_by = ROOT
							development = CAPITAL
							is_capital = no
							development = 30
						}
						save_event_target_as = reward_province
					}
				}
			}
			if = {
				limit = { has_saved_event_target = reward_province }
				event_target:reward_province = {
					add_province_modifier = {
						name = "dominant_trade_hub"
						duration = -1
					}
				}
			}
			else = {
				custom_tooltip = dominant_home_node_reward_tooltip
			}
		}
	}
	
	lorent_bottlemaking_monopoly = {
	    icon = mission_hanseatic_city
		required_missions = { lorent_secure_the_wine_trade }
		position = 6
		
		provinces_to_highlight = {
			OR = {
				province_id = 86
			}
		}
		
		trigger = {
		    86 = {
			    owned_by = ROOT
				has_building = mills
				base_production = 10
			}
		}

        effect = {
            86 = {    
				add_permanent_province_modifier = {
				    name = lorent_bottlemaking_monopoly
					duration = -1
				}		
			}
		}	
	}
	
	lorent_monopolize_wine_production = {
	    icon = mission_green_village
		required_missions = { lorent_bottlemaking_monopoly }
		position = 7
		
		provinces_to_highlight = {
			OR = {
				province_id = 32
				province_id = 33
				province_id = 38
				province_id = 59
                province_id = 72
                province_id = 74
                province_id = 79
                province_id = 81
                province_id = 84
                province_id = 85
                province_id = 88
                province_id = 97
                province_id = 99
                province_id = 101
                province_id = 108
                province_id = 114				
			}
		}
		
		trigger = {
		    custom_trigger_tooltip = {
				tooltip = tooltip_monopolize_wine_production
				32 = {
                owned_by = ROOT
				base_production = 11
				NOT = { local_autonomy = 25.1 }
			    }
				33 = {
                owned_by = ROOT
				base_production = 11
				NOT = { local_autonomy = 25.1 }
			    }
				38 = {
                owned_by = ROOT
				base_production = 11
				NOT = { local_autonomy = 25.1 }
			    }
				59 = {
                owned_by = ROOT
				base_production = 11
				NOT = { local_autonomy = 25.1 }
			    }
				72 = {
                owned_by = ROOT
				base_production = 11
				NOT = { local_autonomy = 25.1 }
			    }
				74 = {
                owned_by = ROOT
				base_production = 11
				NOT = { local_autonomy = 25.1 }
			    }
				79 = {
                owned_by = ROOT
				base_production = 11
				NOT = { local_autonomy = 25.1 }
			    }
				81 = {
                owned_by = ROOT
				base_production = 11
			    NOT = { local_autonomy = 25.1 }
				}
				84 = {
                owned_by = ROOT
				base_production = 11
				NOT = { local_autonomy = 25.1 }
			    }
				85 = {
                owned_by = ROOT
				base_production = 11
				NOT = { local_autonomy = 25.1 }
			    }
				88 = {
                owned_by = ROOT
				base_production = 11
			    NOT = { local_autonomy = 25.1 }
				}
				97 = {
                owned_by = ROOT
				base_production = 11
			    NOT = { local_autonomy = 25.1 }
				}
				99 = {
                owned_by = ROOT
				base_production = 11
			    NOT = { local_autonomy = 25.1 }
				}
				101 = {
                owned_by = ROOT
				base_production = 11
			    NOT = { local_autonomy = 25.1 }
				}
				108 = {
                owned_by = ROOT
				base_production = 11
			    NOT = { local_autonomy = 25.1 }
				}
				114 = {
                owned_by = ROOT
				base_production = 11
				NOT = { local_autonomy = 25.1 }
			    }
			}
		}

        effect = {
			hidden_effect = {
				set_country_flag = lorent_wine_production_monopoly
			}
			custom_tooltip = tooltip_wine_production_monopoly
		}	
	}
	
	lorent_develop_the_bay_of_wines = {
	    icon = mission_dominate_home_trade_node
		required_missions = { lorent_monopolize_wine_production }
		position = 8
		
		provinces_to_highlight = {
			OR = {
				province_id = 33
				province_id = 34
				province_id = 38
				province_id = 40
                province_id = 59
                province_id = 73
                province_id = 80
                province_id = 81
                province_id = 84
                province_id = 86
                province_id = 95
                province_id = 101		
			}
		}
	    
		trigger = {
		    custom_trigger_tooltip = {
				tooltip = tooltip_develop_the_bay_of_wines
				33 = {
                owned_by = ROOT
				development = 22
			    }
				34 = {
                owned_by = ROOT
				development = 22
			    }
				38 = {
                owned_by = ROOT
				development = 22
			    }
				40 = {
                owned_by = ROOT
				development = 22
			    }
				59 = {
                owned_by = ROOT
				development = 22
			    }
				73 = {
                owned_by = ROOT
				development = 22
			    }
				80 = {
                owned_by = ROOT
				development = 22
			    }
				81 = {
                owned_by = ROOT
				development = 22
			    }
				84 = {
                owned_by = ROOT
				development = 22
			    }
				86 = {
                owned_by = ROOT
				development = 22
			    }
				95 = {
                owned_by = ROOT
				development = 22
			    }
				101 = {
                owned_by = ROOT
				development = 22
			    }
			}
			treasury = 500
		}
		
		effect = {
		    33 = {
				add_center_of_trade_level = 1
			}
			38 = {
				add_center_of_trade_level = 1
			}
			101 = {
				add_center_of_trade_level = 1
			}
		    add_treasury = -500
			custom_tooltip = tooltip_developed_the_bay_of_wines
			hidden_effect = {
				101 = { 
			    add_base_tax = 1
				add_base_production = 1
				add_base_manpower = 1
				}
                97 = { 
			    add_base_tax = 1
				add_base_production = 1
				add_base_manpower = 1
                }
				79 = { 
			    add_base_tax = 1
				add_base_production = 1
				add_base_manpower = 1
				}
				108 = { 
			    add_base_tax = 1
				add_base_production = 1
				add_base_manpower = 1
				}
				114 = { 
			    add_base_tax = 1
				add_base_production = 1
				add_base_manpower = 1
				}
				74 = { 
			    add_base_tax = 1
				add_base_production = 1
				add_base_manpower = 1
				}
				67 = { 
			    add_base_tax = 1
				add_base_production = 1
				add_base_manpower = 1
				}
				68 = { 
			    add_base_tax = 1
				add_base_production = 1
				add_base_manpower = 1
				}
				61 = { 
			    add_base_tax = 1
				add_base_production = 1
				add_base_manpower = 1
				}
				69 = { 
			    add_base_tax = 1
				add_base_production = 1
				add_base_manpower = 1
			    }
				70 = { 
			    add_base_tax = 1
				add_base_production = 1
				add_base_manpower = 1
			    }
			}	
		}
	}

    lorent_create_the_lorentish_wine_company = {
	    icon = mission_asian_trader
		required_missions = { lorent_develop_the_bay_of_wines }
		position = 9
     	
		provinces_to_highlight = {
				province_id = 101
		}
		
		trigger = {
		    101 = {
                owned_by = ROOT
				development = 35
				NOT = { local_autonomy = 1 }
			}	
			adm_power = 100
			dip_power = 100
		}	
		
		effect = {
		    add_adm_power = -100
			add_dip_power = -100
		    add_country_modifier = {
					name = lorent_nationalization_of_wine_production
					duration = -1
			}
			custom_tooltip = tooltip_nationalized_the_wine
			hidden_effect = {
			    85 = {    
				    add_base_production = 1
				    add_permanent_province_modifier = {
				    name = lorent_nationalized_the_wine
					duration = -1
				    }
				}	
                88 = {    
				    add_base_production = 1
				    add_permanent_province_modifier = {
				    name = lorent_nationalized_the_wine
					duration = -1
				    }
				}
				99 = {    
				    add_base_production = 1
				    add_permanent_province_modifier = {
				    name = lorent_nationalized_the_wine
					duration = -1
				    }
				}
				84 = {    
				    add_base_production = 1
				    add_permanent_province_modifier = {
				    name = lorent_nationalized_the_wine
					duration = -1
				    }
				}
				81 = {    
				    add_base_production = 1
				    add_permanent_province_modifier = {
				    name = lorent_nationalized_the_wine
					duration = -1
				    }
				}
				101 = {    
				    add_base_production = 1
				    add_permanent_province_modifier = {
				    name = lorent_nationalized_the_wine
					duration = -1
				    }
				}
				97 = {    
				    add_base_production = 1
				    add_permanent_province_modifier = {
				    name = lorent_nationalized_the_wine
					duration = -1
				    }
				}
				79 = {    
				    add_base_production = 1
				    add_permanent_province_modifier = {
				    name = lorent_nationalized_the_wine
					duration = -1
				    }
				}
				108 = {    
				    add_base_production = 1
				    add_permanent_province_modifier = {
				    name = lorent_nationalized_the_wine
					duration = -1
				    }
				}
				114 = {    
				    add_base_production = 1
				    add_permanent_province_modifier = {
				    name = lorent_nationalized_the_wine
					duration = -1
				    }
				}
				74 = {    
				    add_base_production = 1
				    add_permanent_province_modifier = {
				    name = lorent_nationalized_the_wine
					duration = -1
				    }
				}
				72 = {    
				    add_base_production = 1
				    add_permanent_province_modifier = {
				    name = lorent_nationalized_the_wine
					duration = -1
				    }
				}
				38 = {    
				    add_base_production = 1
				    add_permanent_province_modifier = {
				    name = lorent_nationalized_the_wine
					duration = -1
				    }
				}
				59 = {    
				    add_base_production = 1
				    add_permanent_province_modifier = {
				    name = lorent_nationalized_the_wine
					duration = -1
				    }
				}
				33 = {    
				    add_base_production = 1
				    add_permanent_province_modifier = {
				    name = lorent_nationalized_the_wine
					duration = -1
				    }
				}
				32 = {    
				    add_base_production = 1
				    add_permanent_province_modifier = {
				    name = lorent_nationalized_the_wine
					duration = -1
				    }
				}
			}	
		}
	}

	lorent_lorentish_supremacy = {
	    icon = mission_rb_grow_the_channel
		required_missions = { lorent_create_the_lorentish_wine_company }
		position = 10
		
		provinces_to_highlight = {
				province_id = 1292
		}

        trigger = {
		    home_trade_node = {
				highest_value_trade_node = yes
			}
		}

        effect = {
		    add_country_modifier = {
					name = lorent_lorentish_trade_supremacy
					duration = 36500
			}
			add_mercantilism = 5
			country_event = { id = anb_price.7 }
		}		
	}
}


lorent_conflict_with_gawed_and_anbennar = {
	slot = 5
	generic = no
	ai = yes
	potential = {
		tag = A01
	}
	has_country_shield = yes
	
	lorent_wars_of_dominion = {
		icon = mission_unite_home_region
		required_missions = { }
		position = 1
		
		trigger = {
				if = {
					limit = {
						exists = A13
					}
					war_with = A13
			}
		}
		
		effect = {
			small_country_region = {
				limit = {
					NOT = { is_core = ROOT }
					NOT = { owned_by = ROOT }
				}
				add_permanent_claim = ROOT
			}
			add_country_modifier = {
				name = "army_enthusiasm"
				duration = 7300
			}
		}
	}
	
	lorent_halfling_suzerainty = {
		icon = mission_monarch_in_throne_room
		required_missions = { lorent_wars_of_dominion }
		position = 2
		
		provinces_to_highlight = {
			region = small_country_region
			NOT = {
				country_or_non_sovereign_subject_holds = ROOT
			}
		}
		
		trigger = {
			small_country_region = {
				type = all
				country_or_non_sovereign_subject_holds = ROOT
			}
		}

		effect = {
			small_country_region = {
				add_province_modifier = {
					name = "faster_integration"
					duration = 7300
				}
			}
			beepeck_area = {
				limit = {
					NOT = { is_core = ROOT }
					NOT = { owned_by = ROOT }
				}
				add_permanent_claim = ROOT
			}
		}
	}
	
	lorent_attack_on_beepeck = {
		icon = mission_conquer_50_development
		required_missions = { 
			lorent_halfling_suzerainty
		}
		position = 3
		
		provinces_to_highlight = {
			area = beepeck_area
			NOT = {
				country_or_non_sovereign_subject_holds = ROOT
			}
		}
		
		trigger = {
			beepeck_area = {
				type = all
				country_or_non_sovereign_subject_holds = ROOT
			}
		}
		
		effect = {
			add_country_modifier = {
				name = "imperial_ambition"
				duration = 5475
			}
		}
	}
	
	lorent_fortress_in_the_approach = {
		icon = mission_mountain_castle
		required_missions = { lorent_attack_on_beepeck }
		position = 4
		
		provinces_to_highlight = {
			province_id = 210
		}
		
		trigger = {
		    custom_trigger_tooltip = {
				tooltip = tooltip_fort_in_the_approach
			    210 = {
			    has_building = fort_15th
				has_building = fort_16th
				has_building = fort_17th
				has_building = fort_18th
			    }
			}	
			mil_power = 150 
		}
		
		effect = {
		    add_mil_power = -150
			210 = {
		        add_permanent_province_modifier = {
					name = lorent_approach_fortress
					duration = -1
				}	
			}
		}
	}		
	
	lorent_dameshead_ambitions = {
		icon = mission_danzig_or_war
		required_missions = { lorent_deal_with_wineport }
		position = 5
		
		trigger = {
			num_of_transport = 10
			num_of_galley = 30
		}
		
		effect = {
			add_country_modifier = {
				name = "lorent_lorentish_naval_drills"
				duration = 7300
			}
			west_dameshead_region = {
				limit = {
					NOT = { is_core = ROOT }
					NOT = { owned_by = ROOT }
				}
				add_permanent_claim = ROOT
			}
		}
	}
	
	lorent_conquer_west_dameshead = {
		icon = mission_cossack_cavalry
		required_missions = { lorent_dameshead_ambitions }
		position = 6
		
		provinces_to_highlight = {
			region = west_dameshead_region
			NOT = {
				country_or_non_sovereign_subject_holds = ROOT
			}
		}
		
		trigger = {
			west_dameshead_region = {
				type = all
				country_or_non_sovereign_subject_holds = ROOT
			}
		}
		
		effect = {
			add_country_modifier = {
				name = "generic_into_anbennar"
				duration = 7300
			}
			west_damesear_area = {
				limit = {
					NOT = { is_core = ROOT }
					NOT = { owned_by = ROOT }
				}
				add_permanent_claim = ROOT
			}
			east_damesear_area = {
				limit = {
					NOT = { is_core = ROOT }
					NOT = { owned_by = ROOT }
				}
				add_permanent_claim = ROOT
			}
		}
	}
	
	lorent_invasion_of_damesear = {
		icon = mission_heated_battle
		required_missions = { lorent_conquer_west_dameshead }
		position = 7
		
		provinces_to_highlight = {
			OR = {
				area = west_damesear_area
				area = east_damesear_area
			}
			NOT = {
				country_or_non_sovereign_subject_holds = ROOT
			}
		}
		
		trigger = {
			west_damesear_area = {
				type = all
				country_or_non_sovereign_subject_holds = ROOT
			}
			east_damesear_area = {
				type = all
				country_or_non_sovereign_subject_holds = ROOT
			}
		}
		
		effect = {
			add_country_modifier = {
				name = "army_enthusiasm"
				duration = 7300
			}
			damerian_dales_area = {
				limit = {
					NOT = { is_core = ROOT }
					NOT = { owned_by = ROOT }
				}
				add_permanent_claim = ROOT
			}
			silverwoods_area = {
				limit = {
					NOT = { is_core = ROOT }
					NOT = { owned_by = ROOT }
				}
				add_permanent_claim = ROOT
			}
			eastneck_area = {
				limit = {
					NOT = { is_core = ROOT }
					NOT = { owned_by = ROOT }
				}
				add_permanent_claim = ROOT
			}
		}
	}
	
	lorent_control_the_electors = {
		icon = mission_rb_control_electors
		required_missions = { lorent_invasion_of_damesear }
		position = 8
		
		trigger = {
			if = {
				limit = {
					num_of_electors = 3
				}
				OR = {
					calc_true_if = {
						amount = 3
						all_elector = {
							preferred_emperor = ROOT
						}
					}
					calc_true_if = {
						amount = 3
						all_elector = {
							vassal_of = ROOT
						}
					}
					AND = {
					    NOT = { hre_size = 1 }
					    NOT = { exists = Z01 }	#Anbennar
				    }
				}
				else = {
					always = yes
				}
			}
		}
		
		effect = {
			add_country_modifier = {
				name = "eng_rb_hre_relations"
				duration = 5475
			}
		}
	}
	
	lorent_anbennar_emperor = {
		icon = mission_rb_war_of_the_roses
		required_missions = { lorent_control_the_electors }
		position = 9
		
		trigger = {
			OR = {
				ROOT = {
					is_emperor = yes
					hre_reform_level = 6
				}
				AND = {
					NOT = { hre_size = 1 }
					NOT = { exists = Z01 }	#Anbennar
				}
			}
		}
		
		effect = {
			add_country_modifier = {
				name = "eng_rb_imperial_ban_mod"
				duration = 7300
			}
			add_country_modifier = {
				name = lorent_lorentish_anbennar
				duration = -1
			}
		}
	}
}