
namespace = flavor_khozrugan

#Chief Artug Ostokhan
country_event = {
	id = flavor_khozrugan.1
	title = flavor_khozrugan.1.t
	desc = flavor_khozrugan.1.d
	picture = FORT_eventPicture
	
	fire_only_once = yes

	trigger = {
		tag = Z51
		has_regency = no
		has_consort_regency = no
		is_lesser_in_union = no
		is_year = 1500
		NOT = { is_year = 1600 }
	}
	
	#Give up the throne
	option = {
		name = flavor_khozrugan.1.a
		ai_chance = {
			factor = 80
		}
		add_prestige = -50
		add_stability = -1
		add_dip_power = 100
		define_ruler = {
			name = "Artug"
			dynasty = "Ostokhan"
			ADM = 5
			DIP = 5
			MIL = 6
			fixed = yes
			age = 21
		}
		if = {
			limit = {
				has_dlc = "Rights of Man" 
			}
			hidden_effect = { add_ruler_personality = bold_fighter_personality }
		}
		define_heir = {
			name = "Ornog"
			dynasty = "Ostokhan"
			culture = green_orc
			adm = 4
			dip = 4
			mil = 5
			age = 0
		}
		add_estate_loyalty = {
			estate = estate_tribes
			loyalty = 10
		}
	}
	
	#Fight! (lose)
	option = {
		name = flavor_khozrugan.1.b
		trigger = {
			NOT = { mil = 6 }
		}
		ai_chance = {
			factor = 20 
		}
		custom_tooltip = lets_fight_tooltip
		hidden_effect = {
			country_event = { id = flavor_khozrugan.2 }
		}
	}
	
	#Fight! (win)
	option = {
		name = flavor_khozrugan.1.c
		trigger = {
			mil = 6
		}
		ai_chance = {
			factor = 20 
		}
		custom_tooltip = lets_fight_tooltip
		hidden_effect = {
			country_event = { id = flavor_khozrugan.3 }
		}
	}
}

#Fight Lost!
country_event = {
	id = flavor_khozrugan.2
	title = flavor_khozrugan.2.t
	desc = flavor_khozrugan.2.d
	picture = FORT_eventPicture
	
	is_triggered_only = yes
	
	trigger = {
		always = yes
	}
	
	#Death of the ruler
	option = {
		name = flavor_khozrugan.2.a
		custom_tooltip = khozrugan_fight_lost_tooltip
		add_prestige = 25
		add_mil_power = 100
		define_ruler = {
			name = "Artug"
			dynasty = "Ostokhan"
			ADM = 5
			DIP = 5
			MIL = 6
			fixed = yes
			age = 21
		}
		if = {
			limit = {
				has_dlc = "Rights of Man" 
			}
			hidden_effect = { add_ruler_personality = bold_fighter_personality }
		}
		define_heir = {
			name = "Ornog"
			dynasty = "Ostokhan"
			culture = green_orc
			adm = 4
			dip = 4
			mil = 5
			age = 0
		}
		add_estate_loyalty = {
			estate = estate_monstrous_tribes
			loyalty = 50
		}
	}
}

#Fight Won!
country_event = {
	id = flavor_khozrugan.3
	title = flavor_khozrugan.3.t
	desc = flavor_khozrugan.3.d
	picture = FORT_eventPicture
	
	is_triggered_only = yes
	
	trigger = {
		always = yes
	}
	
	#Give up the throne
	option = {
		name = flavor_khozrugan.3.a
		custom_tooltip = khozrugan_fight_won_tooltip
		add_prestige = 50
		add_stability = 1
		add_mil_power = 600
		add_ruler_modifier = {
			name = khozrugan_defeated_pretender
			duration = -1  
		}
		add_estate_loyalty = {
			estate = estate_monstrous_tribes
			loyalty = 50
		}
	}
}